# Exported from Wings 3D 2.2.6.1
newmtl DB2X2_L01
Ns 19.999999999999996
d 1.0
illum 2
Kd 1.0 1.0 1.0
Ka 0.0 0.0 0.0
Ks 0.1997422179440134 0.1997422179440134 0.1997422179440134
Ke 0.0 0.0 0.0
map_Kd DB2X2_L01.png

newmtl Trank_bark
Ns 19.999999999999996
d 1.0
illum 2
Kd 1.0 1.0 1.0
Ka 0.0 0.0 0.0
Ks 0.1997422179440134 0.1997422179440134 0.1997422179440134
Ke 0.0 0.0 0.0
map_Kd bark_0004.jpg

newmtl default
Ns 19.999999999999996
d 1.0
illum 2
Kd 0.7898538076923077 0.8133333333333334 0.6940444444444445
Ka 0.0 0.0 0.0
Ks 0.1689853807692308 0.17133333333333334 0.15940444444444446
Ke 0.0 0.0 0.0

